Explore and Import Metopio Health Atlas Data and Spatial Layers • healthatlas
…
install.packages("healthatlas", repos = c("https://ryanzomorrodi.r-universe.dev", "https://cloud.r-project.org"))

Usage

library(healthatlas)

Set your health atlas. For this example, we are going to use the Chicago Health Atlas, and can do so, by providing the Chicago Health Atlas URL to ha_set().

ha_set("chicagohealthatlas.org")

We can list all the topics (aka indicators) present within Chicago Health Atlas using ha_topics(). The most important column here is the topic_key which can be used to identify the topic within subsequent functions.

ha_topics(progress = FALSE)
#> # A tibble: 410 × 7
#>    topic_name             topic_key topic_description topic_units topic_keywords
#>    <chr>                  <chr>     <chr>             <chr>       <list>        
#>  1 9th grade education r… EDA       Residents 25 or … % of resid… <chr [2]>     
#>  2 ACA marketplace enrol… ENR       Number of plan s… plan selec… <chr [5]>     
#>  3 Accidents mortality    VRAC      Number of people… count of d… <chr [2]>     
#>  4 Accidents mortality r… VRACR     Age-adjusted rat… per 100,00… <chr [2]>     
#>  5 Active business licen… CHANVYI   Count of active … licenses p… <chr [1]>     
#>  6 Adult asthma           HCSATH    Number of adults… count of a… <chr [2]>     
#>  7 Adult asthma rate      HCSATHP   Percent of adult… % of adults <chr [2]>     
#>  8 Adult binge drinking   HCSBD     Number of adults… count of a… <chr [1]>     
#>  9 Adult binge drinking … HCSBDP    Percent of adult… % of adults <chr [1]>     
#> 10 Adult diabetes         HCSDIA    Number of adults… count of a… <chr [1]>     
#> # ℹ 400 more rows
#> # ℹ 2 more variables: topic_datasets <list>, topic_subcategories <list>

Then, we can explore what populations, time periods, and geographic scales that data is available for using ha_coverage(). Again, the most important columns here are the key columns which can be used to specify the data desired.

ha_coverage("EDA", progress = FALSE)
#> # A tibble: 156 × 7
#>    topic_key population_key population_name population_grouping period_key
#>    <chr>     <chr>          <chr>           <chr>               <chr>     
#>  1 EDA       ""             Full population ""                  2011-2015 
#>  2 EDA       ""             Full population ""                  2007-2011 
#>  3 EDA       "F"            Female          "Sex"               2016-2020 
#>  4 EDA       "F"            Female          "Sex"               2015-2019 
#>  5 EDA       "F"            Female          "Sex"               2014-2018 
#>  6 EDA       ""             Full population ""                  2009-2013 
#>  7 EDA       ""             Full population ""                  2018-2022 
#>  8 EDA       ""             Full population ""                  2017-2021 
#>  9 EDA       ""             Full population ""                  2006-2010 
#> 10 EDA       ""             Full population ""                  2015-2019 
#> # ℹ 146 more rows
#> # ℹ 2 more variables: layer_key <chr>, layer_name <chr>

Now, we can import our data using ha_data() specifying the keys we identified above.

data <- ha_data(
  topic_key = "EDA",
  population_key = "",
  period_key = "2018-2022",
  layer_key = "neighborhood"
)
data
#> # A tibble: 77 × 7
#>    geoid      topic_key population_key period_key layer_key  value standardError
#>    <chr>      <chr>     <chr>          <chr>      <chr>      <dbl>         <dbl>
#>  1 1714000-35 EDA       ""             2018-2022  neighborh…  96.1          4.64
#>  2 1714000-36 EDA       ""             2018-2022  neighborh…  98.5          4.64
#>  3 1714000-37 EDA       ""             2018-2022  neighborh…  96.0          6.93
#>  4 1714000-38 EDA       ""             2018-2022  neighborh…  97.0          4.69
#>  5 1714000-39 EDA       ""             2018-2022  neighborh…  98.4          7.34
#>  6 1714000-4  EDA       ""             2018-2022  neighborh…  96.1          3.18
#>  7 1714000-40 EDA       ""             2018-2022  neighborh…  97.5          6.86
#>  8 1714000-41 EDA       ""             2018-2022  neighborh…  99.0          5.27
#>  9 1714000-42 EDA       ""             2018-2022  neighborh…  96.3          3.63
#> 10 1714000-1  EDA       ""             2018-2022  neighborh…  93.9          2.72
#> # ℹ 67 more rows
…
