Obtain Geographic Layer — cha_layer • ChicagoHA
…
    Value

    sf geographic layer.

    Examples

cha_layer("zip")
#> Simple feature collection with 58 features and 6 fields
#> Geometry type: MULTIPOLYGON
#> Dimension:     XY
#> Bounding box:  xmin: -87.86959 ymin: 41.6298 xmax: -87.524 ymax: 42.0231
#> Geodetic CRS:  WGS 84
#> # A tibble: 58 × 7
#>    layer_key geoid name         population state notes                  geometry
#>  * <chr>     <chr> <chr>             <int> <chr> <chr>        <MULTIPOLYGON [°]>
#>  1 zip       60601 60601 (Chic…      15814 IL    "Cen… (((-87.63388 41.88699, -…
#>  2 zip       60602 60602 (Chic…       1261 IL    "Cen… (((-87.63388 41.88453, -…
#>  3 zip       60603 60603 (Chic…       1288 IL    "Cen… (((-87.6338 41.88189, -8…
#>  4 zip       60604 60604 (Chic…        897 IL    "Cen… (((-87.63372 41.87937, -…
#>  5 zip       60605 60605 (Chic…      34071 IL    ""    (((-87.63307 41.87692, -…
#>  6 zip       60606 60606 (Chic…       3797 IL    "Cen… (((-87.63388 41.88699, -…
#>  7 zip       60607 60607 (Chic…      31816 IL    ""    (((-87.66941 41.88889, -…
#>  8 zip       60608 60608 (Chic…      75770 IL    ""    (((-87.69583 41.86648, -…
#>  9 zip       60609 60609 (Chic…      65770 IL    ""    (((-87.68632 41.83032, -…
#> 10 zip       60610 60610 (Chic…      43794 IL    ""    (((-87.64822 41.91093, -…
#> # ℹ 48 more rows
…
