Get started • healthatlas
…
If we need to check which health atlas we are using, we can use
ha_get().

ha_get()
#> [1] "https://chicagohealthatlas.org/api/v1/"

We can list all the topics (aka indicators) present within Chicago
Health Atlas by using ha_topics(). The most important
column here is the topic_key. An individual
topic_key can be used to identify a topic within subsequent
functions.

topics <- ha_topics(progress = FALSE)
topics
#> # A tibble: 411 × 7
#>    topic_name             topic_key topic_description topic_units topic_keywords
#>    <chr>                  <chr>     <chr>             <chr>       <list>        
#>  1 9th grade education r… EDA       Residents 25 or … % of resid… <chr [2]>     
#>  2 ACA marketplace enrol… ENR       Number of plan s… plan selec… <chr [5]>     
#>  3 Accidents mortality    VRAC      Number of people… count of d… <chr [2]>     
#>  4 Accidents mortality r… VRACR     Age-adjusted rat… per 100,00… <chr [2]>     
#>  5 Active business licen… CHANVYI   Count of active … licenses p… <chr [1]>     
#>  6 Adult asthma           HCSATH    Number of adults… count of a… <chr [2]>     
#>  7 Adult asthma rate      HCSATHP   Percent of adult… % of adults <chr [2]>     
#>  8 Adult binge drinking   HCSBD     Number of adults… count of a… <chr [1]>     
#>  9 Adult binge drinking … HCSBDP    Percent of adult… % of adults <chr [1]>     
#> 10 Adult diabetes         HCSDIA    Number of adults… count of a… <chr [1]>     
#> # ℹ 401 more rows
#> # ℹ 2 more variables: topic_datasets <list>, topic_subcategories <list>

Note: topics can be derived from multiple datasets
or belong to multiple subcategories or keywords. Therefore, these
columns may be composed of tibbles or vectors. Filtering
topics via these pieces of information is still quite easy using
purrr::map_lgl().

library(dplyr)
library(purrr)

# filter by dataset
topics %>%
  filter(map_lgl(topic_datasets, ~ "healthy-chicago-survey" %in% .x$key))
#> # A tibble: 74 × 7
#>    topic_name             topic_key topic_description topic_units topic_keywords
#>    <chr>                  <chr>     <chr>             <chr>       <list>        
#>  1 Adult asthma           HCSATH    "Number of adult… count of a… <chr [2]>     
#>  2 Adult asthma rate      HCSATHP   "Percent of adul… % of adults <chr [2]>     
#>  3 Adult binge drinking   HCSBD     "Number of adult… count of a… <chr [1]>     
#>  4 Adult binge drinking … HCSBDP    "Percent of adul… % of adults <chr [1]>     
#>  5 Adult diabetes         HCSDIA    "Number of adult… count of a… <chr [1]>     
#>  6 Adult diabetes rate    HCSDIAP   "Percent of adul… % of adults <chr [1]>     
#>  7 Adult e-cigarette use  HCSEC     "Number of adult… count of a… <chr [2]>     
#>  8 Adult e-cigarette use… HCSECP    "Percent of adul… % of adults <chr [2]>     
#>  9 Adult flu vaccination  HCSFLU    "Number of adult… count of a… <chr [2]>     
#> 10 Adult flu vaccination… HCSFLUP   "Percent of adul… % of adults <chr [2]>     
#> # ℹ 64 more rows
#> # ℹ 2 more variables: topic_datasets <list>, topic_subcategories <list>
…
There may be a specific topic area you are interested in exploring.
You can explore these topic areas using
ha_subcategories().

subcategories <- ha_subcategories()
subcategories
#> # A tibble: 30 × 3
#>    subcategory_name      subcategory_key       category_name       
#>    <chr>                 <chr>                 <chr>               
#>  1 Access to Care        access-to-care        Clinical Care       
#>  2 Quality of Care       quality-of-care       Clinical Care       
#>  3 Community Safety      community-safety-1    Physical Environment
#>  4 Housing & Transit     housing-transit       Physical Environment
#>  5 Pollution             pollution             Physical Environment
#>  6 Resource Availability resource-availability Physical Environment
#>  7 Behavioral Health     behavioral-health     Morbidity           
#>  8 Chronic Disease       chronic-disease-1     Morbidity           
#>  9 Infectious Disease    infectious-disease-1  Morbidity           
#> 10 Injury & Violence     injury-violence-1     Morbidity           
#> # ℹ 20 more rows
…
Once we have a topic or topics in mind, we can explore what
populations, time periods, and geographic scales that data is available
at by using ha_coverage(). Again, the most important
columns here are the key columns which can be used to specify the data
desired.

coverage <- ha_coverage("HCSFVAP", progress = FALSE)
coverage
#> # A tibble: 187 × 7
#>    topic_key population_key population_name population_grouping period_key
#>    <chr>     <chr>          <chr>           <chr>               <chr>     
#>  1 HCSFVAP   ""             Full population ""                  2020-2021 
#>  2 HCSFVAP   ""             Full population ""                  2023-2024 
#>  3 HCSFVAP   ""             Full population ""                  2021-2022 
#>  4 HCSFVAP   ""             Full population ""                  2016-2018 
#>  5 HCSFVAP   ""             Full population ""                  2015-2017 
#>  6 HCSFVAP   ""             Full population ""                  2022-2023 
#>  7 HCSFVAP   ""             Full population ""                  2014-2016 
#>  8 HCSFVAP   ""             Full population ""                  2023-2024 
#>  9 HCSFVAP   ""             Full population ""                  2024      
#> 10 HCSFVAP   ""             Full population ""                  2022-2023 
#> # ℹ 177 more rows
#> # ℹ 2 more variables: layer_key <chr>, layer_name <chr>

Import tabular data

Now, we can import our data using ha_data() and
specifying the keys we identified above.

ease_of_access <- ha_data(
  topic_key = "HCSFVAP",
  population_key = "",
  period_key = "2022-2023",
  layer_key = "neighborhood"
)
ease_of_access
#> # A tibble: 77 × 7
#>    geoid      topic_key population_key period_key layer_key  value standardError
#>    <chr>      <chr>     <chr>          <chr>      <chr>      <dbl>         <dbl>
#>  1 1714000-14 HCSFVAP   ""             2022-2023  neighborh…  53.0          6.18
#>  2 1714000-18 HCSFVAP   ""             2022-2023  neighborh…  51.0          9.56
#>  3 1714000-2  HCSFVAP   ""             2022-2023  neighborh…  62.7          5.51
#>  4 1714000-43 HCSFVAP   ""             2022-2023  neighborh…  46.0          6.48
#>  5 1714000-45 HCSFVAP   ""             2022-2023  neighborh…  48.8         10.6 
#>  6 1714000-47 HCSFVAP   ""             2022-2023  neighborh…  50.4          8.55
#>  7 1714000-52 HCSFVAP   ""             2022-2023  neighborh…  46.5          7.04
#>  8 1714000-6  HCSFVAP   ""             2022-2023  neighborh…  66.6          2.70
#>  9 1714000-49 HCSFVAP   ""             2022-2023  neighborh…  38.1          7.78
#> 10 1714000-24 HCSFVAP   ""             2022-2023  neighborh…  62.3          4.19
#> # ℹ 67 more rows
…
  topic_key = c("POP", "UMP"),
  population_key = c("", "H"),
  period_key = c("2017-2021", "2018-2022", "invalid"),
  layer_key = "neighborhood"
)
#> Warning: Your API call has errors. No results for topic_key = "POP"
#> population_key = "" period_key = "invalid" layer_key = "neighborhood".
#> Warning: Your API call has errors. No results for topic_key = "UMP"
#> population_key = "" period_key = "invalid" layer_key = "neighborhood".
#> Warning: Your API call has errors. No results for topic_key = "POP"
#> population_key = "H" period_key = "invalid" layer_key = "neighborhood".
#> Warning: Your API call has errors. No results for topic_key = "UMP"
#> population_key = "H" period_key = "invalid" layer_key = "neighborhood".
combinations_of_data
#> # A tibble: 616 × 7
#>    geoid      topic_key population_key period_key layer_key  value standardError
#>    <chr>      <chr>     <chr>          <chr>      <chr>      <dbl>         <dbl>
#>  1 1714000-14 UMP       ""             2017-2021  neighborh…  6.67         1.46 
#>  2 1714000-18 UMP       ""             2017-2021  neighborh…  5.36         2.10 
#>  3 1714000-2  UMP       ""             2017-2021  neighborh…  6.66         1.11 
#>  4 1714000-43 UMP       ""             2017-2021  neighborh… 17.0          1.95 
#>  5 1714000-45 UMP       ""             2017-2021  neighborh… 13.5          5.24 
#>  6 1714000-47 UMP       ""             2017-2021  neighborh… 21.5          8.32 
#>  7 1714000-52 UMP       ""             2017-2021  neighborh…  8.02         1.69 
#>  8 1714000-6  UMP       ""             2017-2021  neighborh…  3.86         0.580
#>  9 1714000-49 UMP       ""             2017-2021  neighborh… 18.7          2.10 
#> 10 1714000-24 UMP       ""             2017-2021  neighborh…  3.50         0.608
#> # ℹ 606 more rows
…
metadata %>%
  pmap(ha_data)
#> [[1]]
#> # A tibble: 77 × 7
#>    geoid      topic_key population_key period_key layer_key  value standardError
#>    <chr>      <chr>     <chr>          <chr>      <chr>      <dbl> <lgl>        
#>  1 1714000-35 POP       ""             2017-2021  neighbor… 21276. NA           
#>  2 1714000-36 POP       ""             2017-2021  neighbor…  7417. NA           
#>  3 1714000-37 POP       ""             2017-2021  neighbor…  2280. NA           
#>  4 1714000-38 POP       ""             2017-2021  neighbor… 24397. NA           
#>  5 1714000-39 POP       ""             2017-2021  neighbor… 18503. NA           
#>  6 1714000-4  POP       ""             2017-2021  neighbor… 42252. NA           
#>  7 1714000-40 POP       ""             2017-2021  neighbor… 11608. NA           
#>  8 1714000-41 POP       ""             2017-2021  neighbor… 28802. NA           
#>  9 1714000-42 POP       ""             2017-2021  neighbor… 24362. NA           
#> 10 1714000-1  POP       ""             2017-2021  neighbor… 55627. NA           
#> # ℹ 67 more rows
#> 
#> [[2]]
#> # A tibble: 77 × 7
#>    geoid      topic_key population_key period_key layer_key  value standardError
#>    <chr>      <chr>     <chr>          <chr>      <chr>      <dbl>         <dbl>
#>  1 1714000-14 HCSFVAP   ""             2020-2021  neighborh…  59.6          7.18
#>  2 1714000-18 HCSFVAP   ""             2020-2021  neighborh…  46.3          9.32
#>  3 1714000-2  HCSFVAP   ""             2020-2021  neighborh…  61.8          5.95
#>  4 1714000-43 HCSFVAP   ""             2020-2021  neighborh…  58.5          6.90
#>  5 1714000-45 HCSFVAP   ""             2020-2021  neighborh…  55.7         10.4 
#>  6 1714000-47 HCSFVAP   ""             2020-2021  neighborh…  19.0          7.30
#>  7 1714000-52 HCSFVAP   ""             2020-2021  neighborh…  49.0         11.8 
#>  8 1714000-6  HCSFVAP   ""             2020-2021  neighborh…  77.5          2.31
#>  9 1714000-49 HCSFVAP   ""             2020-2021  neighborh…  54.9          7.55
#> 10 1714000-24 HCSFVAP   ""             2020-2021  neighborh…  76.1          3.17
#> # ℹ 67 more rows
#> 
#> [[3]]
#> # A tibble: 77 × 7
#>    geoid     topic_key population_key period_key layer_key   value standardError
#>    <chr>     <chr>     <chr>          <chr>      <chr>       <dbl>         <dbl>
#>  1 1714000-… UMP       H              2017-2021  neighbor… 20.2            22.8 
#>  2 1714000-… UMP       H              2017-2021  neighbor…  0.0239         48.0 
#>  3 1714000-… UMP       H              2017-2021  neighbor…  6.60           21.8 
#>  4 1714000-… UMP       H              2017-2021  neighbor…  9.47           30.5 
#>  5 1714000-… UMP       H              2017-2021  neighbor… 12.2            28.4 
#>  6 1714000-4 UMP       H              2017-2021  neighbor…  8.13            3.35
#>  7 1714000-… UMP       H              2017-2021  neighbor… 29.8            52.9 
#>  8 1714000-… UMP       H              2017-2021  neighbor…  6.42           10.5 
#>  9 1714000-… UMP       H              2017-2021  neighbor…  3.37           37.6 
#> 10 1714000-1 UMP       H              2017-2021  neighbor…  5.19            4.38
#> # ℹ 67 more rows
…
