…
ha_get()
#> [1] "https://chicagohealthatlas.org/api/v1/"
```

We can list all the topics (aka indicators) present within Chicago
Health Atlas by using
[`ha_topics()`](https://ryanzomorrodi.github.io/healthatlas/reference/ha_topics.md).
The most important column here is the `topic_key`. An individual
`topic_key` can be used to identify a topic within subsequent functions.

``` r

topics <- ha_topics(progress = FALSE)
topics
#> # A tibble: 463 × 7
#>    topic_name             topic_key topic_description topic_units topic_keywords
#>    <chr>                  <chr>     <chr>             <chr>       <list>        
#>  1 Active transportation… ACT       Percent of worke… "% of work… <chr [3]>     
#>  2 Area Deprivation Index ADI       The ADI is a ran… ""          <chr [0]>     
#>  3 Asthma (CDC Places)    AST       Percent of adult… "% of adul… <chr [0]>     
#>  4 Expected annual build… BAL       Building loss qu… ""          <chr [6]>     
#>  5 Have ever had cancer   CAN       Percent of resid… "% of adul… <chr [4]>     
#>  6 Drive alone to work    CAR       Percent of worke… "% of work… <chr [0]>     
#>  7 Invasive breast cance… CCB       Annual diagnosis… "per 100,0… <chr [4]>     
#>  8 Cervical cancer diagn… CCC       Annual diagnosis… "per 100,0… <chr [5]>     
#>  9 Oral cancer diagnosis… CCD       Annual diagnosis… "per 100,0… <chr [4]>     
#> 10 Lung cancer diagnosis… CCG       Annual diagnosis… "per 100,0… <chr [5]>     
#> # ℹ 453 more rows
#> # ℹ 2 more variables: topic_datasets <list>, topic_subcategories <list>
```
…
There may be a specific topic area you are interested in exploring. You
can explore these topic areas using
[`ha_subcategories()`](https://ryanzomorrodi.github.io/healthatlas/reference/ha_subcategories.md).

``` r

subcategories <- ha_subcategories()
subcategories
#> # A tibble: 32 × 3
#>    subcategory_name      subcategory_key       category_name       
#>    <chr>                 <chr>                 <chr>               
#>  1 Pollution             pollution-32          Environmental       
#>  2 Access to Care        access-to-care        Clinical Care       
#>  3 Quality of Care       quality-of-care       Clinical Care       
#>  4 Cancer                cancer-36             Health Outcomes     
#>  5 Community Safety      community-safety      Physical Environment
#>  6 Housing & Transit     housing-transit       Physical Environment
#>  7 Pollution             pollution-26          Physical Environment
#>  8 Resource Availability resource-availability Physical Environment
#>  9 Behavioral Health     behavioral-health-2   Morbidity           
#> 10 Chronic Disease       chronic-disease-31    Morbidity           
#> # ℹ 22 more rows
```
…
Once we have a topic or topics in mind, we can explore what populations,
time periods, and geographic scales that data is available at by using
[`ha_coverage()`](https://ryanzomorrodi.github.io/healthatlas/reference/ha_coverage.md).
Again, the most important columns here are the key columns which can be
used to specify the data desired.

``` r

coverage <- ha_coverage("HCSFVAP", progress = FALSE)
coverage
#> # A tibble: 187 × 7
#>    topic_key population_key population_name population_grouping period_key
#>    <chr>     <chr>          <chr>           <chr>               <chr>     
#>  1 HCSFVAP   ""             Full population ""                  2020-2021 
#>  2 HCSFVAP   ""             Full population ""                  2023-2024 
#>  3 HCSFVAP   ""             Full population ""                  2021-2022 
#>  4 HCSFVAP   ""             Full population ""                  2016-2018 
#>  5 HCSFVAP   ""             Full population ""                  2015-2017 
#>  6 HCSFVAP   ""             Full population ""                  2022-2023 
#>  7 HCSFVAP   ""             Full population ""                  2014-2016 
#>  8 HCSFVAP   ""             Full population ""                  2023-2024 
#>  9 HCSFVAP   ""             Full population ""                  2024      
#> 10 HCSFVAP   ""             Full population ""                  2022-2023 
#> # ℹ 177 more rows
#> # ℹ 2 more variables: layer_key <chr>, layer_name <chr>
```
…
Now, we can import our data using
[`ha_data()`](https://ryanzomorrodi.github.io/healthatlas/reference/ha_data.md)
and specifying the keys we identified above.

``` r

ease_of_access <- ha_data(
  topic_key = "HCSFVAP",
  population_key = "",
  period_key = "2022-2023",
  layer_key = "neighborhood"
)
ease_of_access
#> # A tibble: 77 × 7
#>    geoid      topic_key population_key period_key layer_key  value standardError
#>    <chr>      <chr>     <chr>          <chr>      <chr>      <dbl>         <dbl>
#>  1 1714000-14 HCSFVAP   ""             2022-2023  neighborh…  53.0          6.18
#>  2 1714000-18 HCSFVAP   ""             2022-2023  neighborh…  51.0          9.56
#>  3 1714000-2  HCSFVAP   ""             2022-2023  neighborh…  62.7          5.51
#>  4 1714000-43 HCSFVAP   ""             2022-2023  neighborh…  46.0          6.48
#>  5 1714000-45 HCSFVAP   ""             2022-2023  neighborh…  48.8         10.6 
#>  6 1714000-47 HCSFVAP   ""             2022-2023  neighborh…  50.4          8.55
#>  7 1714000-52 HCSFVAP   ""             2022-2023  neighborh…  46.5          7.04
#>  8 1714000-6  HCSFVAP   ""             2022-2023  neighborh…  66.6          2.70
#>  9 1714000-49 HCSFVAP   ""             2022-2023  neighborh…  38.1          7.78
#> 10 1714000-24 HCSFVAP   ""             2022-2023  neighborh…  62.3          4.19
#> # ℹ 67 more rows
```
…
  topic_key = c("POP", "UMP"),
  population_key = c("", "H"),
  period_key = c("2017-2021", "2018-2022", "invalid"),
  layer_key = "neighborhood"
)
#> Warning: Your API call has errors. No results for topic_key = "POP"
#> population_key = "" period_key = "invalid" layer_key = "neighborhood".
#> Warning: Your API call has errors. No results for topic_key = "UMP"
#> population_key = "" period_key = "invalid" layer_key = "neighborhood".
#> Warning: Your API call has errors. No results for topic_key = "POP"
#> population_key = "H" period_key = "invalid" layer_key = "neighborhood".
#> Warning: Your API call has errors. No results for topic_key = "UMP"
#> population_key = "H" period_key = "invalid" layer_key = "neighborhood".
combinations_of_data
#> # A tibble: 616 × 7
#>    geoid      topic_key population_key period_key layer_key  value standardError
#>    <chr>      <chr>     <chr>          <chr>      <chr>      <dbl>         <dbl>
#>  1 1714000-14 POP       ""             2017-2021  neighbor… 4.88e4            NA
#>  2 1714000-18 POP       ""             2017-2021  neighbor… 1.38e4            NA
#>  3 1714000-2  POP       ""             2017-2021  neighbor… 7.99e4            NA
#>  4 1714000-43 POP       ""             2017-2021  neighbor… 5.27e4            NA
#>  5 1714000-45 POP       ""             2017-2021  neighbor… 9.65e3            NA
#>  6 1714000-47 POP       ""             2017-2021  neighbor… 2.64e3            NA
#>  7 1714000-52 POP       ""             2017-2021  neighbor… 2.45e4            NA
#>  8 1714000-6  POP       ""             2017-2021  neighbor… 1.03e5            NA
#>  9 1714000-49 POP       ""             2017-2021  neighbor… 3.93e4            NA
#> 10 1714000-24 POP       ""             2017-2021  neighbor… 8.69e4            NA
#> # ℹ 606 more rows
```
…
library(tibble)
library(purrr)

# creating a table of data I want
metadata <- tribble(
  ~topic_key , ~population_key , ~period_key , ~layer_key     ,
  "POP"      , ""              , "2017-2021" , "neighborhood" ,
  "HCSFVAP"  , ""              , "2020-2021" , "neighborhood" ,
  "UMP"      , "H"             , "2017-2021" , "neighborhood" ,
)

metadata %>%
  pmap(ha_data)
#> [[1]]
#> # A tibble: 77 × 7
#>    geoid      topic_key population_key period_key layer_key  value standardError
#>    <chr>      <chr>     <chr>          <chr>      <chr>      <dbl> <lgl>        
#>  1 1714000-14 POP       ""             2017-2021  neighbor… 4.88e4 NA           
#>  2 1714000-18 POP       ""             2017-2021  neighbor… 1.38e4 NA           
#>  3 1714000-2  POP       ""             2017-2021  neighbor… 7.99e4 NA           
#>  4 1714000-43 POP       ""             2017-2021  neighbor… 5.27e4 NA           
#>  5 1714000-45 POP       ""             2017-2021  neighbor… 9.65e3 NA           
#>  6 1714000-47 POP       ""             2017-2021  neighbor… 2.64e3 NA           
#>  7 1714000-52 POP       ""             2017-2021  neighbor… 2.45e4 NA           
#>  8 1714000-6  POP       ""             2017-2021  neighbor… 1.03e5 NA           
#>  9 1714000-49 POP       ""             2017-2021  neighbor… 3.93e4 NA           
#> 10 1714000-24 POP       ""             2017-2021  neighbor… 8.69e4 NA           
#> # ℹ 67 more rows
#> 
#> [[2]]
#> # A tibble: 77 × 7
#>    geoid      topic_key population_key period_key layer_key  value standardError
#>    <chr>      <chr>     <chr>          <chr>      <chr>      <dbl>         <dbl>
#>  1 1714000-14 HCSFVAP   ""             2020-2021  neighborh…  59.6          7.18
#>  2 1714000-18 HCSFVAP   ""             2020-2021  neighborh…  46.3          9.32
#>  3 1714000-2  HCSFVAP   ""             2020-2021  neighborh…  61.8          5.95
#>  4 1714000-43 HCSFVAP   ""             2020-2021  neighborh…  58.5          6.90
#>  5 1714000-45 HCSFVAP   ""             2020-2021  neighborh…  55.7         10.4 
#>  6 1714000-47 HCSFVAP   ""             2020-2021  neighborh…  19.0          7.30
#>  7 1714000-52 HCSFVAP   ""             2020-2021  neighborh…  49.0         11.8 
#>  8 1714000-6  HCSFVAP   ""             2020-2021  neighborh…  77.5          2.31
#>  9 1714000-49 HCSFVAP   ""             2020-2021  neighborh…  54.9          7.55
#> 10 1714000-24 HCSFVAP   ""             2020-2021  neighborh…  76.1          3.17
#> # ℹ 67 more rows
#> 
#> [[3]]
#> # A tibble: 77 × 7
#>    geoid     topic_key population_key period_key layer_key   value standardError
#>    <chr>     <chr>     <chr>          <chr>      <chr>       <dbl>         <dbl>
#>  1 1714000-… UMP       H              2017-2021  neighbor… 5.95e+0          1.54
#>  2 1714000-… UMP       H              2017-2021  neighbor… 3.13e+0          1.73
#>  3 1714000-2 UMP       H              2017-2021  neighbor… 4.21e+0          4.09
#>  4 1714000-… UMP       H              2017-2021  neighbor… 1.90e+1         27.5 
#>  5 1714000-… UMP       H              2017-2021  neighbor… 1.51e-1        126.  
#>  6 1714000-… UMP       H              2017-2021  neighbor… 9.29e-3         32.9 
#>  7 1714000-… UMP       H              2017-2021  neighbor… 7.80e+0          1.67
#>  8 1714000-6 UMP       H              2017-2021  neighbor… 4.37e+0          3.21
#>  9 1714000-… UMP       H              2017-2021  neighbor… 3.71e+1         23.6 
#> 10 1714000-… UMP       H              2017-2021  neighbor… 3.48e+0          1.86
#> # ℹ 67 more rows
```
…
