Typical Usage • ChicagoHA
…
      typical_usage.Rmd

Discover indicators

library(ChicagoHA)

We can list all the topics (aka indicators) present within Chicago
Health Atlas using cha_topics(). The most important column
here is the topic_key which can be used to identify the
topic within subsequent functions.

topics <- cha_topics(progress = FALSE)
topics
#> # A tibble: 403 × 7
#>    topic_name           topic_key topic_description topic_units subcategory_name
#>    <chr>                <chr>     <chr>             <chr>       <chr>           
#>  1 9th grade education… EDA       Residents 25 or … % of resid… Education       
#>  2 ACA marketplace enr… ENR       Number of plan s… plan selec… Access to Care  
#>  3 Accidents mortality  VRAC      Number of people… count of d… Injury & Violen…
#>  4 Accidents mortality… VRACR     Age-adjusted rat… per 100,00… Injury & Violen…
#>  5 Active business lic… CHANVYI   Count of active … licenses p… Income          
#>  6 Adult asthma         HCSATH    Number of adults… count of a… Chronic Disease 
#>  7 Adult asthma rate    HCSATHP   Percent of adult… % of adults Chronic Disease 
#>  8 Adult binge drinking HCSBD     Number of adults… count of a… Alcohol & Drug …
#>  9 Adult binge drinkin… HCSBDP    Percent of adult… % of adults Alcohol & Drug …
#> 10 Adult diabetes       HCSDIA    Number of adults… count of a… Chronic Disease 
#> # ℹ 393 more rows
#> # ℹ 2 more variables: subcategory_key <chr>, category <chr>

Often, you may have an topic area that you are interested in
exploring. You can explore these topic areas using
cha_topc_subcategories().

subcategories <- cha_topic_subcategories()
subcategories
#> # A tibble: 30 × 3
#>    subcategories_name    subcategories_key     category_name       
#>    <chr>                 <chr>                 <chr>               
#>  1 Access to Care        access-to-care        Clinical Care       
#>  2 Quality of Care       quality-of-care       Clinical Care       
#>  3 Community Safety      community-safety-1    Physical Environment
#>  4 Housing & Transit     housing-transit       Physical Environment
#>  5 Pollution             pollution             Physical Environment
#>  6 Resource Availability resource-availability Physical Environment
#>  7 Behavioral Health     behavioral-health     Morbidity           
#>  8 Chronic Disease       chronic-disease-1     Morbidity           
#>  9 Infectious Disease    infectious-disease-1  Morbidity           
#> 10 Injury & Violence     injury-violence-1     Morbidity           
#> # ℹ 20 more rows
…
Once we have a topic or topics in mind, we can explore what
populations, time periods, and geographic scales that data is available
for using cha_coverage(). Again, the most important columns
here are the key columns which can be used to specify the data
desired.

coverage <- cha_coverage("HCSFVAP", progress = FALSE)
coverage
#> # A tibble: 168 × 6
#>    population_key population_name population_grouping period_key layer_key
#>    <chr>          <chr>           <chr>               <chr>      <chr>    
#>  1 ""             Full population ""                  2022-2023  place    
#>  2 ""             Full population ""                  2023       place    
#>  3 ""             Full population ""                  2021-2022  place    
#>  4 ""             Full population ""                  2022       place    
#>  5 ""             Full population ""                  2020-2021  place    
#>  6 ""             Full population ""                  2021       place    
#>  7 ""             Full population ""                  2020       place    
#>  8 ""             Full population ""                  2018       place    
#>  9 ""             Full population ""                  2017       place    
#> 10 ""             Full population ""                  2016       place    
#> # ℹ 158 more rows
#> # ℹ 1 more variable: layer_name <chr>

Import tabular data

Now, we can import our data using cha_data() specifying
the keys we identified above.

ease_of_access <- cha_data(
  topic_key = "HCSFVAP",
  population_key = "",
  period_key = "2022-2023",
  layer_key = "neighborhood"
)
ease_of_access
#> # A tibble: 77 × 4
#>    neighborhood measure value standardError
#>    <chr>        <chr>   <dbl>         <dbl>
#>  1 1714000-35   HCSFVAP  57.9          6.86
#>  2 1714000-36   HCSFVAP  54.7          6.25
#>  3 1714000-37   HCSFVAP  45.5          7.45
#>  4 1714000-38   HCSFVAP  56.9          5.86
#>  5 1714000-39   HCSFVAP  52.4         10.5 
#>  6 1714000-4    HCSFVAP  71.7          5.49
#>  7 1714000-40   HCSFVAP  36.8          6.73
#>  8 1714000-41   HCSFVAP  65.9          7.52
#>  9 1714000-42   HCSFVAP  48.4          8.27
#> 10 1714000-1    HCSFVAP  56.7          4.96
#> # ℹ 67 more rows
…
